Regression Modelling with Tidyverse | lost in economics
…
data.frame 뿐일까! 사실 R의 다른 객체들도 셀 안에 넣을 수 있다. 이 장점을 살리면, 필요한 데이터에 대한 필요한 모델을 유연하게 생성할 수 있다.

일단, 필요한 라이브러리를 불러오자.

library(tidyverse)
library(modelr)
library(broom)
library(gapminder)

편의상 네이티브 data.frame 대신 tidyverse의 data.frame 대체물인 tibble을 쓰도록 하겠다. 여기서 활용할 gapminder 데이터 셋은 각국의 기대 수명과 각종 변수들을 담고 있다. 데이터 셋의 대략적인 생김새는 아래와 같다. 각각의 컬럼은 국가, 대륙, 년도, 기대 수명, 인구, 그리고 1인당 GDP를 나타낸다.

data(gapminder) 
gapminder

## # A tibble: 1,704 x 6
##        country continent  year lifeExp      pop gdpPercap
##         <fctr>    <fctr> <int>   <dbl>    <int>     <dbl>
##  1 Afghanistan      Asia  1952  28.801  8425333  779.4453
##  2 Afghanistan      Asia  1957  30.332  9240934  820.8530
##  3 Afghanistan      Asia  1962  31.997 10267083  853.1007
##  4 Afghanistan      Asia  1967  34.020 11537966  836.1971
##  5 Afghanistan      Asia  1972  36.088 13079460  739.9811
##  6 Afghanistan      Asia  1977  38.438 14880372  786.1134
##  7 Afghanistan      Asia  1982  39.854 12881816  978.0114
##  8 Afghanistan      Asia  1987  40.822 13867957  852.3959
##  9 Afghanistan      Asia  1992  41.674 16317921  649.3414
## 10 Afghanistan      Asia  1997  41.763 22227415  635.3414
## # ... with 1,694 more rows
…
